…
    ## `summarise()` has grouped output by 'month'. You can override using the
    ## `.groups` argument.

    ## # A tibble: 923 × 5
    ## # Groups:   month [12]
    ##    month Community.Area crime_count arrest_num arrest_prob
    ##    <dbl>          <int>       <int>      <dbl>       <dbl>
    ##  1     1              1          48          9       0.188
    ##  2     1              2          34          9       0.265
    ##  3     1              3          41          5       0.122
    ##  4     1              4          24          8       0.333
    ##  5     1              5           6          1       0.167
    ##  6     1              6          24          4       0.167
    ##  7     1              7          11          0       0    
    ##  8     1              8          79         16       0.203
    ##  9     1             10          11          2       0.182
    ## 10     1             11          10          2       0.2  
    ## # … with 913 more rows
…
