…
**Here, it is obvious that some airlines have incomplete data. Among
relatively complete airlines, UA and B6 will have lower delay ratios
than the rest of the large airlines (such as DL and AA, both of which
have average delay ratios throughout the day but are above 0.6). The
proportion of delays in EV and WN apparently decreased with morning and
evening during the day. It is worth noting that VX has a high delay
ratio close to 1 at 11:00 and 13:00. Meanwhile, most airlines perform
better at night than during the day, with the exception of YV。**

``` r
 flights%>%filter(carrier=="HA")
```

    ## # A tibble: 342 × 19
    ##     year month   day dep_time sched_de…¹ dep_d…² arr_t…³ sched…⁴ arr_d…⁵ carrier
    ##    <int> <int> <int>    <int>      <int>   <dbl>   <int>   <int>   <dbl> <chr>  
    ##  1  2013     1     1      857        900      -3    1516    1530     -14 HA     
    ##  2  2013     1     2      909        900       9    1525    1530      -5 HA     
    ##  3  2013     1     3      914        900      14    1504    1530     -26 HA     
    ##  4  2013     1     4      900        900       0    1516    1530     -14 HA     
    ##  5  2013     1     5      858        900      -2    1519    1530     -11 HA     
    ##  6  2013     1     6     1019        900      79    1558    1530      28 HA     
    ##  7  2013     1     7     1042        900     102    1620    1530      50 HA     
    ##  8  2013     1     8      901        900       1    1504    1530     -26 HA     
    ##  9  2013     1     9      641        900    1301    1242    1530    1272 HA     
    ## 10  2013     1    10      859        900      -1    1449    1530     -41 HA     
    ## # … with 332 more rows, 9 more variables: flight <int>, tailnum <chr>,
    ## #   origin <chr>, dest <chr>, air_time <dbl>, distance <dbl>, hour <dbl>,
    ## #   minute <dbl>, time_hour <dttm>, and abbreviated variable names
    ## #   ¹​sched_dep_time, ²​dep_delay, ³​arr_time, ⁴​sched_arr_time, ⁵​arr_delay
…
