…
``` r
flights%>%left_join(
airports%>%select(faa,lat,lon),c("dest" = "faa"))%>%
  rename(destlat = lat,destlon = lon)%>%
  left_join(.,select(airports,faa,lat,lon),c("origin" = "faa"))%>%
  rename(orilat = lat,orilon = lon)
```

    ## # A tibble: 336,776 × 23
    ##     year month   day dep_time sched_de…¹ dep_d…² arr_t…³ sched…⁴ arr_d…⁵ carrier
    ##    <int> <int> <int>    <int>      <int>   <dbl>   <int>   <int>   <dbl> <chr>  
    ##  1  2013     1     1      517        515       2     830     819      11 UA     
    ##  2  2013     1     1      533        529       4     850     830      20 UA     
    ##  3  2013     1     1      542        540       2     923     850      33 AA     
    ##  4  2013     1     1      544        545      -1    1004    1022     -18 B6     
    ##  5  2013     1     1      554        600      -6     812     837     -25 DL     
    ##  6  2013     1     1      554        558      -4     740     728      12 UA     
    ##  7  2013     1     1      555        600      -5     913     854      19 B6     
    ##  8  2013     1     1      557        600      -3     709     723     -14 EV     
    ##  9  2013     1     1      557        600      -3     838     846      -8 B6     
    ## 10  2013     1     1      558        600      -2     753     745       8 AA     
    ## # … with 336,766 more rows, 13 more variables: flight <int>, tailnum <chr>,
    ## #   origin <chr>, dest <chr>, air_time <dbl>, distance <dbl>, hour <dbl>,
    ## #   minute <dbl>, time_hour <dttm>, destlat <dbl>, destlon <dbl>, orilat <dbl>,
    ## #   orilon <dbl>, and abbreviated variable names ¹​sched_dep_time, ²​dep_delay,
    ## #   ³​arr_time, ⁴​sched_arr_time, ⁵​arr_delay
…
``` r
planedata <-planes%>%select(tailnum,year)%>%
rename(planeyear = year)
```

``` r
flights%>%
  left_join(planedata, by = "tailnum")%>% 
  mutate(total = arr_delay + dep_delay) %>%
  group_by(planeyear)%>%
  summarize(mean(total,na.rm = TRUE))
```

    ## # A tibble: 47 × 2
    ##    planeyear `mean(total, na.rm = TRUE)`
    ##        <int>                       <dbl>
    ##  1      1956                        9.45
    ##  2      1959                       14.0 
    ##  3      1963                        9.76
    ##  4      1965                      -20.2 
    ##  5      1967                       14.3 
    ##  6      1968                        8.80
    ##  7      1972                       23.2 
    ##  8      1973                        3.95
    ##  9      1974                       17.5 
    ## 10      1975                       18.1 
    ## # … with 37 more rows
…
